Improve random forest performance using variable importance in R
…
data_step1 %>% group_by(YearMade) %>% count()

## # A tibble: 72 x 2
## # Groups:   YearMade [72]
##    YearMade     n
##       <dbl> <int>
##  1     1000 38185
##  2     1919   127
##  3     1920    17
##  4     1937     1
##  5     1942     1
##  6     1947     1
##  7     1948     3
##  8     1949     1
##  9     1950     8
## 10     1951     7
## # ... with 62 more rows

After plotting YearMade distribution I can see that sth weird is happening. There is 38185 entries with YearMade 1000. This is not possible, so I remove this data and use the sales after the War ended.

data_step1$SalesID %>% n_distinct()

## [1] 401125

data_step1$MachineID %>% n_distinct()

## [1] 341027

data_step1 %>% filter(MachineID == 2283592)

## # A tibble: 26 x 67
##    SalesID MachineID ModelID datasource auctioneerID YearMade MachineHoursCur~
##      <dbl>     <dbl>   <dbl>      <dbl>        <dbl>    <dbl>            <dbl>
##  1 4319288   2283592    4579        172            1     2005                0
##  2 4319290   2283592    4579        172            1     2006              991
##  3 4319294   2283592    4579        172            1     2005             2201
##  4 4319295   2283592    4579        172            1     2005                0
##  5 4319296   2283592    4579        172            1     2004             3405
##  6 4319297   2283592    4579        172            1     2005             2589
##  7 4319298   2283592    4579        172            1     2002             3802
##  8 4319299   2283592    4579        172            1     2004             2693
##  9 4319309   2283592    4579        172            1     1000             2033
## 10 4319310   2283592    4579        172            1     2008             1098
## # ... with 16 more rows, and 60 more variables: UsageBand <chr>,
## #   fiModelDesc <chr>, fiBaseModel <chr>, fiSecondaryDesc <chr>,
## #   fiModelSeries <chr>, fiModelDescriptor <chr>, ProductSize <chr>,
## #   fiProductClassDesc <chr>, state <chr>, ProductGroup <chr>,
## #   ProductGroupDesc <chr>, Drive_System <chr>, Enclosure <chr>, Forks <chr>,
## #   Pad_Type <chr>, Ride_Control <chr>, Stick <chr>, Transmission <chr>,
## #   Turbocharged <chr>, Blade_Extension <chr>, Blade_Width <chr>,
## #   Enclosure_Type <chr>, Engine_Horsepower <chr>, Hydraulics <chr>,
## #   Pushblock <chr>, Ripper <chr>, Scarifier <chr>, Tip_Control <chr>,
…
